…
    ## Rows: 50000 Columns: 35
    ## ── Column specification ────────────────────────────────────────────────────────
    ## Delimiter: ","
    ## dbl (35): NKp30, KIR3DL1, NKp44, KIR2DL1, GranzymeB, CXCR6, CD161, KIR2DS4, ...
    ## 
    ## ℹ Use `spec()` to retrieve the full column specification for this data.
    ## ℹ Specify the column types or set `show_col_types = FALSE` to quiet this message.

``` r
cytof
```

    ## # A tibble: 50,000 × 35
    ##     NKp30 KIR3DL1  NKp44 KIR2DL1 GranzymeB   CXCR6  CD161 KIR2DS4 NKp46   NKG2D
    ##     <dbl>   <dbl>  <dbl>   <dbl>     <dbl>   <dbl>  <dbl>   <dbl> <dbl>   <dbl>
    ##  1  0.188  3.62   -0.561  -0.294     2.48  -0.145  -0.315  1.94   4.08   2.62  
    ##  2  1.03   1.70   -0.289  -0.480     3.26  -0.0339 -0.411  3.80   3.73  -0.483 
    ##  3  3.00   6.14    1.90    0.482     4.28   1.95   -0.502 -0.320  4.56  -0.507 
    ##  4  4.30  -0.221   0.243  -0.483     3.35   0.926   3.88  -0.170  4.48   1.93  
    ##  5 -0.439 -0.504  -0.153   0.751     3.19  -0.0589  1.09  -0.0503 0.838 -0.458 
    ##  6  2.09  -0.399   3.46   -0.520     4.35  -0.364  -0.571 -0.450  4.06   3.43  
    ##  7 -0.613 -0.117  -0.451   3.55      1.54  -0.414   0.725 -0.0674 2.67  -0.0838
    ##  8 -0.341 -0.253  -0.459   2.90     -0.545 -0.612  -0.128  2.79   0.726  2.10  
    ##  9  2.31  -0.364  -0.573   3.84      2.92   2.46    2.25  -0.376  4.33  -0.0168
    ## 10  3.48  -0.0282 -0.182   4.20      4.74   0.695   5.08   4.19   4.54   2.16  
    ## # ℹ 49,990 more rows
    ## # ℹ 25 more variables: NKG2C <dbl>, X2B4 <dbl>, CD69 <dbl>, KIR3DL1.S1 <dbl>,
    ## #   CD2 <dbl>, KIR2DL5 <dbl>, DNAM.1 <dbl>, CD4 <dbl>, CD8 <dbl>, CD57 <dbl>,
    ## #   TRAIL <dbl>, KIR3DL2 <dbl>, MIP1b <dbl>, CD107a <dbl>, GM.CSF <dbl>,
    ## #   CD16 <dbl>, TNFa <dbl>, ILT2 <dbl>, Perforin <dbl>, KIR2DL2.L3.S2 <dbl>,
    ## #   KIR2DL3 <dbl>, NKG2A <dbl>, NTB.A <dbl>, CD56 <dbl>, INFg <dbl>
…
One column gives the amount of protein in a cell

The resulting dataset has 50,000 × 35 = 1,750,000 rows

``` r
cytof_long <- cytof %>%
  pivot_longer(
    cols = everything(),   # all protein columns
    names_to = "protein",  # protein identity
    values_to = "amount"   # protein level
  )
cytof_long
```

    ## # A tibble: 1,750,000 × 2
    ##    protein   amount
    ##    <chr>      <dbl>
    ##  1 NKp30      0.188
    ##  2 KIR3DL1    3.62 
    ##  3 NKp44     -0.561
    ##  4 KIR2DL1   -0.294
    ##  5 GranzymeB  2.48 
    ##  6 CXCR6     -0.145
    ##  7 CD161     -0.315
    ##  8 KIR2DS4    1.94 
    ##  9 NKp46      4.08 
    ## 10 NKG2D      2.62 
    ## # ℹ 1,749,990 more rows
…
For each protein marker, the median expression level and the median
absolute deviation (MAD) are computed.

``` r
cytof_summary <- cytof_long %>%
  group_by(protein) %>%
  summarise(
    median = median(amount), # median protein level
    mad = mad(amount)        # median absolute deviation
  )
cytof_summary
```

    ## # A tibble: 35 × 3
    ##    protein  median   mad
    ##    <chr>     <dbl> <dbl>
    ##  1 CD107a  -0.122  0.609
    ##  2 CD16     5.12   0.874
    ##  3 CD161    0.726  1.69 
    ##  4 CD2      3.95   1.68 
    ##  5 CD4     -0.204  0.395
    ##  6 CD56     5.71   0.998
    ##  7 CD57     3.07   1.99 
    ##  8 CD69     4.59   1.02 
    ##  9 CD8      2.40   2.29 
    ## 10 CXCR6   -0.0581 0.727
    ## # ℹ 25 more rows
…
