…
``` r
# Generate predicted class labels for test data
pred_class <- predict(fit_model, test)

# Generate predicted probabilities for each class
pred_prob <- predict(fit_model, test, type = "prob")

# Combine test data, predicted class, and probabilities into one dataset
pred <- bind_cols(test, pred_class, pred_prob)

# View final prediction dataset
pred
```

    ## # A tibble: 2,108 × 12
    ##    customer_id   age annual_income_k gender product_category_purchased
    ##          <dbl> <dbl>           <dbl> <fct>  <fct>                     
    ##  1           6    25              48 Male   Home                      
    ##  2          13    41              70 Female Home                      
    ##  3          16    41              99 Male   Home                      
    ##  4          23    55             136 Female Books                     
    ##  5          27    29              95 Female Books                     
    ##  6          28    39              48 Male   Home                      
    ##  7          36    32             121 Male   Home                      
    ##  8          38    68             100 Male   Electronics               
    ##  9          44    24              35 Female Home                      
    ## 10          45    38              47 Female Home                      
    ## # ℹ 2,098 more rows
    ## # ℹ 7 more variables: average_spend_per_visit <dbl>,
    ## #   number_of_visits_in_last_6_months <dbl>, customer_segment <fct>,
    ## #   .pred_class <fct>, `.pred_Budget Shopper` <dbl>,
    ## #   `.pred_Premium Shopper` <dbl>, `.pred_Regular Shopper` <dbl>
…
